{
  "version" : "v3",
  "profiles" : [ {
    "trait" : [ ],
    "status" : null,
    "socialMedia" : [ ],
    "score" : [ ],
    "programMembership" : [ {
      "topGoldManhatanPreferredCustomerInd" : null,
      "tncSignedYear" : null,
      "tncRegion" : null,
      "tncAcceptedYear" : null,
      "tncAcceptanceCode" : "Y",
      "tier" : {
        "tierEndDate" : "2099-12-31",
        "tierEffectiveDate" : null,
        "memberTier" : "RG",
        "lastModifiedBy" : null
      },
      "specialTierCode" : null,
      "solicitationReasonCode" : null,
      "signedDate" : null,
      "signed" : null,
      "serviceStatusCode" : "Y",
      "serviceLocator" : [ {
        "signedDate" : "2020-06-08",
        "signed" : "true",
        "regionType" : "Ctry_Reg",
        "regionCode" : null,
        "region" : "USCA",
        "lastModifiedBy" : "API User Mulesoft",
        "eSignDate" : null,
        "eSign" : true,
        "eligible" : "N"
      } ],
      "rejectionDate" : null,
      "recordType" : "Loyalty",
      "purchaseCurrencyCode" : "USD",
      "programCode" : "N1",
      "primaryIndicator" : false,
      "preferenceId" : null,
      "platinumTermsAcceptDate" : null,
      "paymentCardCode" : null,
      "originalMailSolicitationDatetime" : null,
      "originalIssueDate" : null,
      "originalDate" : null,
      "memberStatus" : "Active",
      "membershipPurchaseStatusCode" : null,
      "membershipPurchaseDate" : null,
      "membershipPurchaseAmount" : null,
      "marketingProgramCode" : "N/A",
      "loyaltyMemberNumber" : "21554164",
      "localGoldCode" : null,
      "localGold" : null,
      "level" : null,
      "lastModifiedBy" : "API User Mulesoft",
      "lastIssueDate" : null,
      "lastGoldTransactionDate" : null,
      "lastGoldTransactionCode" : null,
      "lastContactReasonCode" : null,
      "goldServiceEligibilityCode" : null,
      "goldManhatanPreferred" : null,
      "gccApprovalCode" : null,
      "expressServiceIndicator" : false,
      "enrollSourceType" : {
        "url" : null,
        "systemType" : "SFUI",
        "systemId" : null,
        "serviceName" : null,
        "jobName" : null,
        "ip" : null,
        "channel" : null
      },
      "enrollmentLocationNumber" : null,
      "enrollmentChannel" : null,
      "electronicConsentDate" : null,
      "electronicConsentCode" : null,
      "dropEnrollmentReason" : null,
      "counterBypassLevelCode" : "Y",
      "cancellationDate" : null,
      "affiliationOrganization" : null,
      "affilCustomerNumber" : null,
      "acquistionMethodCode" : null,
      "preferredFTCode" : null
    } ],
    "preferenceSet" : [ {
      "vehiclePreferences" : null,
      "specialPreferences" : null,
      "primaryInd" : "false",
      "preferenceSetType" : "Profile",
      "preferenceSetName" : "Profile",
      "preferenceSetId" : null,
      "ancillaryPreferences" : null,
      "contactPreferences" : {
        "sendSMSNotificationsTo" : null,
        "sendPostalDocTo" : null,
        "sendEmailTransactionsTo" : null,
        "sendEmailNotificationsTo" : null,
        "lastModifiedBy" : "API User Mulesoft",
        "hertzOnDemandIndicator" : null,
        "eReceiptsOptIn" : false,
        "carfirmationsSMSOptIn" : false,
        "carfirmationsEmailOptIn" : false
      }
    } ],
    "phoneNumbers" : [ {
      "primaryIndicator" : true,
      "phoneType" : "Mobile",
      "phoneNumber" : "+12425636454",
      "mobileCountryCode" : "BS",
      "lastModifiedBy" : "API User Mulesoft",
      "id" : null,
      "doNotCallIPAddress" : null,
      "doNotCall" : false,
      "dataQualityCode" : null
    } ],
    "paymentMethod" : [ {
      "voucherCode" : null,
      "specialCardIndicator" : null,
      "reasonCode" : null,
      "RCSToken" : "4111115929861111",
      "preferredSequence" : "1",
      "preferenceId" : "40950931",
      "PlasticType" : null,
      "physicalVerificationDatetime" : null,
      "paymentCardType" : "Visa",
      "OttoRcvCardNumber" : null,
      "nameOnCard" : null,
      "lastModifiedBy" : "API User Mulesoft",
      "isActive" : true,
      "id" : "a3kL0000006WAXQIA4",
      "HCCStatus" : null,
      "HCCCardNumber" : null,
      "GEPDToken" : null,
      "ExpirationDateLegacy" : null,
      "expirationDate" : "10/23",
      "embossedHCCNumber" : null,
      "directDebitStartDate" : null,
      "directDebitEndDate" : null,
      "companyTacoNumber" : null,
      "companyName" : null,
      "companyId" : null,
      "companyIataNumber" : null,
      "cashDeposit" : false,
      "cardLast4Digits" : "1111",
      "cancelDate" : null,
      "billType" : null,
      "billingStreet" : null,
      "billingState" : null,
      "billingPostalCode" : null,
      "billingCountry" : null,
      "billingCity" : null,
      "accountType" : "Credit Card",
      "lastValidatedDate" : null,
      "debitCardLastRentalDate" : null,
      "consentTransactionId" : null,
      "consent" : false,
      "binInfo" : {
        "lookupProductId" : null,
        "lookupPrePaidIndicator" : null,
        "lookupCardUsageIndicator" : null,
        "lookupCardType" : null,
        "lookupAccountFundSource" : null,
        "issuerNumericCountryCode" : null,
        "issuerAlphaCountryCode" : null
      },
      "addlAuthInfo" : {
        "lastSuccessfulPaymentDate" : null,
        "cvvResponseDate" : null,
        "cvvResponse" : null,
        "cardPresentCheckType" : null,
        "cardPresentCheckDate" : null,
        "avsResponseDate" : null,
        "avsResponse" : null
      }
    } ],
    "MGBSMSStatus" : null,
    "legacyCustomerId" : null,
    "isHCCCorporate" : null,
    "email" : [ {
      "primaryIndicator" : true,
      "optOutSource" : null,
      "lastModifiedBy" : "API User Mulesoft",
      "id" : null,
      "emailType" : "Home",
      "emailBounced" : true,
      "emailAddress" : "testing@test.com",
      "doNotEmailIPAddress" : null,
      "doNotEmail" : true,
      "dataQualityCode" : null
    } ],
    "discountProgram" : [ ],
    "customerProfileId" : "214658068",
    "customerName" : {
      "title" : null,
      "suffix" : null,
      "prefix" : null,
      "middleName" : null,
      "lastName" : "Darnold",
      "lastModifiedBy" : "API User Mulesoft",
      "firstName" : "Sam"
    },
    "contactId" : "003L000001CimnfIAB",
    "companyName" : null,
    "clearLinkId" : null,
    "brand" : "ZE",
    "alert" : [ ],
    "addresses" : [ {
      "stateProvince" : "SC",
      "primaryIndicator" : true,
      "postalCode" : "78499",
      "lastModifiedBy" : "API User Mulesoft",
      "id" : null,
      "doNotMailIPAddress" : null,
      "doNotMailDateTime" : null,
      "doNotMail" : null,
      "dataQualityCode" : null,
      "country" : "US",
      "city" : "test",
      "addressType" : "Home",
      "addressLine3" : null,
      "addressLine2" : null,
      "addressLine1" : "test"
    } ],
    "passports" : [ ],
    "gdprConsent" : false,
    "equifaxLastValidatedDate" : null,
    "driverLicenses" : [ {
      "licenseNumber" : "4564645",
      "lastModifiedBy" : "API User Mulesoft",
      "issuedStateProvince" : "SC",
      "issuedCountry" : "US",
      "issueDate" : null,
      "isPrimary" : false,
      "isDeleted" : false,
      "isActive" : true,
      "expDate" : "2029-06-08",
      "lastValidatedDate" : null
    } ],
    "concurUserUri" : null,
    "concurRefreshToken" : null,
    "concurRefreshExpiresInDt" : null,
    "concurGeoLocation" : null,
    "communications" : [ ]
  } ],
  "personId" : "10204087513",
  "mdmId" : null,
  "dnr" : false,
  "customerInfo" : {
    "language" : null,
    "gender" : null,
    "birthPlace" : null,
    "birthDate" : "1991-06-08"
  },
  "transactionId" : null,
  "source" : {
    "url" : null,
    "systemType" : "SFUI",
    "systemId" : null,
    "serviceName" : null,
    "jobName" : null,
    "ip" : null,
    "channel" : null
  }
}